

[{
	"guid": "857417578666496ba260d421673da1df",
	"fName": "Bhushan",
	"isUserExist": true,
	"organization": null,
	"isProduct": true,
	"isUser": true,
	"lName": "Dasare",
	"userId": "801",
	"status": "N",
	"emailAddress": "Bhushan.Dasare@aexp.com",

		"roleName": "ADMIN",
		"roleId": 1
 
    },
    {
	"guid": "857417578666496ba260d421673da1df",
	"fName": "Abhy",
	"isUserExist": true,
	"organization": null,
	"isProduct": true,
	"isUser": true,
	"lName": "M",
	"userId": "802",
	"status": "Y",
	"emailAddress": "abhy@aexp.com",
	
		"roleName": "EAUTH ADMIN",
		"roleId": 9
        
    },
    {
	"guid": "857417578666496ba260d421673da1df",
	"fName": "Nav",
	"isUserExist": true,
	"organization": null,
	"isProduct": true,
	"isUser": true,
	"lName": "Ferwani",
	"userId": "803",
	"status": "N",
	"emailAddress": "Nav.Ferwani@aexp.com",
	
		"roleName": "MERCHANT USER",
		"roleId": 7
      
    }
    ]
