{
    "resultCount": 1,
    "requestId": "5A3AFC5EF6DR7FF6",
    "responseTimestamp": "2017-02-14T05:53:11.639-0700",
    "prodDetails": [
        {
            "prodId": "29",
            "prodName": "Pay-With-Points",
            "prodDesc": "This Product is pay with MR points and available under public product"
        }
    ],
    "returnCodeInfo": [
        {
            "returnCd": "SUCCESS",
            "returnMessagetxt": "SUCCESS",
            "returnTypeCd": "SUCCESS"
        }
    ],
    "serviceSuccess": true
}