<?xml version="1.0" encoding="utf-8"?>
<!-- Generator: Adobe Illustrator 18.0.0, SVG Export Plug-In . SVG Version: 6.00 Build 0)  -->
<!DOCTYPE svg PUBLIC "-//W3C//DTD SVG 1.1//EN" "http://www.w3.org/Graphics/SVG/1.1/DTD/svg11.dtd">
<svg version="1.1" id="Layer_1" xmlns="http://www.w3.org/2000/svg" xmlns:xlink="http://www.w3.org/1999/xlink" x="0px" y="0px"
	 width="18px" height="18px" viewBox="0 0 18 18" enable-background="new 0 0 18 18" xml:space="preserve">
<path d="M15.71753,5.28638c-0.38892-0.38892-1.02533-0.38892-1.41425,0L9,10.58972L3.69672,5.28638
	c-0.38892-0.38892-1.02533-0.38892-1.41425,0s-0.38892,1.02533,0,1.41425L8.29291,12.711c0.38892,0.38892,1.02527,0.38892,1.41418,0
	l6.01044-6.01038C16.10645,6.31171,16.10645,5.67529,15.71753,5.28638z"/>
</svg>
