<?xml version="1.0" encoding="utf-8"?>
<!-- Generator: Adobe Illustrator 18.0.0, SVG Export Plug-In . SVG Version: 6.00 Build 0)  -->
<!DOCTYPE svg PUBLIC "-//W3C//DTD SVG 1.1//EN" "http://www.w3.org/Graphics/SVG/1.1/DTD/svg11.dtd">
<svg version="1.1" id="Layer_1" xmlns="http://www.w3.org/2000/svg" xmlns:xlink="http://www.w3.org/1999/xlink" x="0px" y="0px"
	 width="52px" height="52px" viewBox="0 0 52 52" enable-background="new 0 0 52 52" xml:space="preserve">
<g id="_x37_0._Edit">
	<path d="M45.93066,10.37988L41.6416,6.09082c-1.13086-1.13086-3.11133-1.13086-4.24219,0l-3.21259,3.21271
		c-0.00012,0.00012-0.00018,0.00006-0.00031,0.00018s-0.00006,0.00018-0.00018,0.00031L8.18164,35.30957
		c-0.18018,0.17969-0.31152,0.40332-0.38184,0.64844l-2.55029,8.91602c-0.14941,0.52246-0.00439,1.08398,0.37842,1.46973
		c0.28564,0.28711,0.66992,0.44238,1.06396,0.44238c0.13477,0,0.27051-0.01855,0.40381-0.05566l8.96094-2.50586
		c0.24805-0.06934,0.47363-0.20117,0.65625-0.38379l29.21777-29.21777c0.56543-0.56543,0.87793-1.31885,0.87793-2.12158
		C46.80859,11.69824,46.49609,10.94482,45.93066,10.37988z M14.86963,41.44141l-5.99756,1.67773l1.70557-5.96289l24.66949-24.67078
		l4.28906,4.28937L14.86963,41.44141z M41.65729,14.65375l-4.28912-4.28937l2.15234-2.15247l4.28906,4.28955L41.65729,14.65375z"/>
</g>
</svg>
