<?xml version="1.0" encoding="utf-8"?>
<!-- Generator: Adobe Illustrator 18.0.0, SVG Export Plug-In . SVG Version: 6.00 Build 0)  -->
<!DOCTYPE svg PUBLIC "-//W3C//DTD SVG 1.1//EN" "http://www.w3.org/Graphics/SVG/1.1/DTD/svg11.dtd">
<svg version="1.1" id="Layer_1" xmlns="http://www.w3.org/2000/svg" xmlns:xlink="http://www.w3.org/1999/xlink" x="0px" y="0px"
	 width="52px" height="52px" viewBox="0 0 52 52" enable-background="new 0 0 52 52" xml:space="preserve">
<g id="_x34_9._Fee_x2F_Payment">
	<g>
		<path d="M25.99994,1.99994C12.74512,1.99994,2,12.74506,2,26c0,13.25476,10.74512,24.00006,23.99994,24.00006
			C39.25488,50.00006,50,39.25476,50,26C50,12.74506,39.25488,1.99994,25.99994,1.99994z M25.99994,47.00006
			C14.42053,47.00006,5,37.57947,5,26S14.42053,4.99994,25.99994,4.99994C37.57941,4.99994,47,14.42053,47,26
			S37.57941,47.00006,25.99994,47.00006z"/>
		<path d="M27.5,24.50592v-7.47357c1.75073,0.4306,3.00555,1.55359,3.87531,3.44354c0.03186,0.08826,0.07159,0.17175,0.11859,0.2514
			l0.03345,0.07397l0.00519-0.00287c0.2688,0.40375,0.72729,0.67035,1.24872,0.67035c0.82843,0,1.5-0.67157,1.5-1.5
			c0-0.2699-0.07697-0.51953-0.20166-0.73828l-0.03369-0.08301c-1.16705-2.88635-3.46466-4.66254-6.5459-5.15149V12.5
			c0-0.82861-0.67188-1.5-1.5-1.5s-1.5,0.67139-1.5,1.5v1.42175c-3.776,0.44415-6.4082,2.93152-6.4082,6.24915
			c0,3.80835,2.59277,5.26245,6.4082,6.52441v8.31531c-2.06451-0.50873-3.54761-1.90643-4.4043-4.1991l-0.09375-0.24902
			l-0.00806,0.0036c-0.23999-0.50861-0.75354-0.86298-1.35327-0.86298c-0.82843,0-1.5,0.67157-1.5,1.5
			c0,0.20703,0.04193,0.40424,0.1178,0.58368l-0.00061,0.00031l0.07129,0.21484c1.10443,3.31152,3.72766,5.46521,7.1709,6.00867
			V39.5c0,0.82812,0.67188,1.5,1.5,1.5s1.5-0.67188,1.5-1.5v-1.4115c4.28552-0.42157,7.18359-3.00049,7.18359-6.56897
			C34.68359,27.60364,32.05188,25.95038,27.5,24.50592z M21.28906,19.9541c0-1.59906,1.23193-2.71173,3.21094-3.02844v6.55188
			C22.07648,22.52362,21.28906,21.67633,21.28906,19.9541z M31.48633,31.70508c0,1.93835-1.46838,3.1922-3.98633,3.47278v-7.49518
			C30.54675,28.80621,31.48633,29.82666,31.48633,31.70508z"/>
	</g>
</g>
</svg>
