<?xml version="1.0" encoding="utf-8"?>
<!-- Generator: Adobe Illustrator 18.0.0, SVG Export Plug-In . SVG Version: 6.00 Build 0)  -->
<!DOCTYPE svg PUBLIC "-//W3C//DTD SVG 1.1//EN" "http://www.w3.org/Graphics/SVG/1.1/DTD/svg11.dtd">
<svg version="1.1" id="Layer_1" xmlns="http://www.w3.org/2000/svg" xmlns:xlink="http://www.w3.org/1999/xlink" x="0px" y="0px"
	 width="52px" height="52px" viewBox="0 0 52 52" enable-background="new 0 0 52 52" xml:space="preserve">
<g id="_x34_7._Cancel_Circle">
	<g>
		<path d="M26,2C12.74518,2,2,12.74518,2,26s10.74518,24,24,24s24-10.74518,24-24S39.25482,2,26,2z M26,47
			C14.42053,47,5,37.57941,5,26C5,14.42053,14.42053,5,26,5s21,9.42053,21,21C47,37.57941,37.57947,47,26,47z"/>
		<path d="M34.48535,17.51465c-0.58594-0.58594-1.53516-0.58594-2.12109,0L26,23.87891l-6.36426-6.36426
			c-0.58594-0.58594-1.53516-0.58594-2.12109,0c-0.58594,0.58545-0.58594,1.53564,0,2.12109L23.87891,26l-6.36426,6.36426
			c-0.58594,0.58594-0.58594,1.53516,0,2.12109c0.29297,0.29297,0.67676,0.43945,1.06055,0.43945s0.76758-0.14648,1.06055-0.43945
			L26,28.12109l6.36426,6.36426c0.29297,0.29297,0.67676,0.43945,1.06055,0.43945s0.76758-0.14648,1.06055-0.43945
			c0.58594-0.58594,0.58594-1.53516,0-2.12109L28.12109,26l6.36426-6.36426C35.07129,19.05029,35.07129,18.1001,34.48535,17.51465z"
			/>
	</g>
</g>
</svg>
