<?xml version="1.0" encoding="utf-8"?>
<!-- Generator: Adobe Illustrator 18.0.0, SVG Export Plug-In . SVG Version: 6.00 Build 0)  -->
<!DOCTYPE svg PUBLIC "-//W3C//DTD SVG 1.1//EN" "http://www.w3.org/Graphics/SVG/1.1/DTD/svg11.dtd">
<svg version="1.1" id="Layer_1" xmlns="http://www.w3.org/2000/svg" xmlns:xlink="http://www.w3.org/1999/xlink" x="0px" y="0px"
	 width="52px" height="52px" viewBox="0 0 52 52" enable-background="new 0 0 52 52" xml:space="preserve">
<g id="_x37_2._Chat">
	<path d="M44,11h-3V8c0-1.65002-1.34998-3-3-3H8C6.34998,5,5,6.34998,5,8v21c0,1.64996,1.34998,3,3,3h3v3c0,1.64996,1.34998,3,3,3
		h15.87891l8.56055,8.56055C38.72656,46.84766,39.11035,47,39.5,47c0.19336,0,0.38867-0.03711,0.57422-0.11426
		C40.63477,46.65332,41,46.10645,41,45.5V38h3c1.65002,0,3-1.35004,3-3V14C47,12.34998,45.65002,11,44,11z M8,29V8h30v3H14
		c-1.65002,0-3,1.34998-3,3v15H8z M44,35h-4.5H38v3v3.87891L31.10938,35H30.5H14v-3v-3V14h24h3h3V35z"/>
</g>
</svg>
