<?xml version="1.0" encoding="utf-8"?>
<!-- Generator: Adobe Illustrator 18.0.0, SVG Export Plug-In . SVG Version: 6.00 Build 0)  -->
<!DOCTYPE svg PUBLIC "-//W3C//DTD SVG 1.1//EN" "http://www.w3.org/Graphics/SVG/1.1/DTD/svg11.dtd">
<svg version="1.1" id="Layer_1" xmlns="http://www.w3.org/2000/svg" xmlns:xlink="http://www.w3.org/1999/xlink" x="0px" y="0px"
	 width="52px" height="52px" viewBox="0 0 52 52" enable-background="new 0 0 52 52" xml:space="preserve">
<g id="_x34_3._Plus">
	<path d="M48.5,24.5h-21v-21C27.5,2.67139,26.82812,2,26,2s-1.5,0.67139-1.5,1.5v21h-21C2.67139,24.5,2,25.17139,2,26
		s0.67139,1.5,1.5,1.5h21v21c0,0.82812,0.67188,1.5,1.5,1.5s1.5-0.67188,1.5-1.5v-21h21c0.82812,0,1.5-0.67139,1.5-1.5
		S49.32812,24.5,48.5,24.5z"/>
</g>
</svg>
