<?xml version="1.0" encoding="utf-8"?>
<!-- Generator: Adobe Illustrator 18.0.0, SVG Export Plug-In . SVG Version: 6.00 Build 0)  -->
<!DOCTYPE svg PUBLIC "-//W3C//DTD SVG 1.1//EN" "http://www.w3.org/Graphics/SVG/1.1/DTD/svg11.dtd">
<svg version="1.1" id="Layer_1" xmlns="http://www.w3.org/2000/svg" xmlns:xlink="http://www.w3.org/1999/xlink" x="0px" y="0px"
	 width="18px" height="18px" viewBox="0 0 18 18" enable-background="new 0 0 18 18" xml:space="preserve">
<path d="M15.14258,3.88428c-0.40527-0.37402-1.03809-0.34863-1.41309,0.05811l-7.36371,7.99463L2.72217,8.29297
	c-0.39062-0.39062-1.02344-0.39062-1.41406,0s-0.39062,1.02344,0,1.41406l4.38037,4.38086
	c0.19458,0.19458,0.44934,0.29169,0.70422,0.29242c0.00104,0,0.00128,0.00055,0.00232,0.00055
	c0.00006,0,0.00018-0.00006,0.00024-0.00006s0.00018,0.00006,0.00024,0.00006c0.00012,0,0.00024-0.00018,0.00037-0.00018
	c0.26971-0.00024,0.53839-0.10846,0.73499-0.32208l8.06934-8.76172C15.57422,4.89062,15.54883,4.2583,15.14258,3.88428z"/>
</svg>
