<?xml version="1.0" encoding="utf-8"?>
<!-- Generator: Adobe Illustrator 18.0.0, SVG Export Plug-In . SVG Version: 6.00 Build 0)  -->
<!DOCTYPE svg PUBLIC "-//W3C//DTD SVG 1.1//EN" "http://www.w3.org/Graphics/SVG/1.1/DTD/svg11.dtd">
<svg version="1.1" id="Layer_1" xmlns="http://www.w3.org/2000/svg" xmlns:xlink="http://www.w3.org/1999/xlink" x="0px" y="0px"
	 width="18px" height="18px" viewBox="0 0 18 18" enable-background="new 0 0 18 18" xml:space="preserve">
<g id="_x31_._Nav">
	<g>
		<path d="M16.24968,8.2487H1.75032c-0.41357,0-0.75,0.33643-0.75,0.75s0.33643,0.75,0.75,0.75h14.49937
			c0.41357,0,0.75-0.33643,0.75-0.75S16.66326,8.2487,16.24968,8.2487z"/>
		<path d="M1.74813,5.25h14.50375c0.41375,0,0.75031-0.33643,0.75031-0.75s-0.33657-0.75-0.75031-0.75H1.74813
			c-0.41375,0-0.75031,0.33643-0.75031,0.75S1.33438,5.25,1.74813,5.25z"/>
		<path d="M16.24968,12.75H1.75032c-0.41357,0-0.75,0.33643-0.75,0.75s0.33643,0.75,0.75,0.75h14.49937
			c0.41357,0,0.75-0.33643,0.75-0.75S16.66326,12.75,16.24968,12.75z"/>
	</g>
</g>
</svg>
