[ 
  {"state": "Afghanistan", "regionCode": "AF"}, 
  {"state": "Åland Islands", "regionCode": "AX"}, 
  {"state": "Albania", "regionCode": "AL"}, 
  {"state": "Algeria", "regionCode": "DZ"}, 
  {"state": "American Samoa", "regionCode": "AS"}, 
  {"state": "AndorrA", "regionCode": "AD"}, 
  {"state": "Angola", "regionCode": "AO"}, 
  {"state": "Anguilla", "regionCode": "AI"}, 
  {"state": "Antarctica", "regionCode": "AQ"}, 
  {"state": "Antigua and Barbuda", "regionCode": "AG"}, 
  {"state": "Argentina", "regionCode": "AR"}, 
  {"state": "Armenia", "regionCode": "AM"}, 
  {"state": "Aruba", "regionCode": "AW"}, 
  {"state": "Australia", "regionCode": "AU"}, 
  {"state": "Austria", "regionCode": "AT"}, 
  {"state": "Azerbaijan", "regionCode": "AZ"}, 
  {"state": "Bahamas", "regionCode": "BS"}, 
  {"state": "Bahrain", "regionCode": "BH"}, 
  {"state": "Bangladesh", "regionCode": "BD"}, 
  {"state": "Barbados", "regionCode": "BB"}, 
  {"state": "Belarus", "regionCode": "BY"}, 
  {"state": "Belgium", "regionCode": "BE"}, 
  {"state": "Belize", "regionCode": "BZ"}, 
  {"state": "Benin", "regionCode": "BJ"}, 
  {"state": "Bermuda", "regionCode": "BM"}, 
  {"state": "Bhutan", "regionCode": "BT"}, 
  {"state": "Bolivia", "regionCode": "BO"}, 
  {"state": "Bosnia and Herzegovina", "regionCode": "BA"}, 
  {"state": "Botswana", "regionCode": "BW"}, 
  {"state": "Bouvet Island", "regionCode": "BV"}, 
  {"state": "Brazil", "regionCode": "BR"}, 
  {"state": "British Indian Ocean Territory", "regionCode": "IO"}, 
  {"state": "Brunei Darussalam", "regionCode": "BN"}, 
  {"state": "Bulgaria", "regionCode": "BG"}, 
  {"state": "Burkina Faso", "regionCode": "BF"}, 
  {"state": "Burundi", "regionCode": "BI"}, 
  {"state": "Cambodia", "regionCode": "KH"}, 
  {"state": "Cameroon", "regionCode": "CM"}, 
  {"state": "Canada", "regionCode": "CA"}, 
  {"state": "Cape Verde", "regionCode": "CV"}, 
  {"state": "Cayman Islands", "regionCode": "KY"}, 
  {"state": "Central African Republic", "regionCode": "CF"}, 
  {"state": "Chad", "regionCode": "TD"}, 
  {"state": "Chile", "regionCode": "CL"}, 
  {"state": "China", "regionCode": "CN"}, 
  {"state": "Christmas Island", "regionCode": "CX"}, 
  {"state": "Cocos (Keeling) Islands", "regionCode": "CC"}, 
  {"state": "Colombia", "regionCode": "CO"}, 
  {"state": "Comoros", "regionCode": "KM"}, 
  {"state": "Congo", "regionCode": "CG"}, 
  {"state": "Congo, The Democratic Republic of the", "regionCode": "CD"}, 
  {"state": "Cook Islands", "regionCode": "CK"}, 
  {"state": "Costa Rica", "regionCode": "CR"}, 
  {"state": "Cote D\"Ivoire", "regionCode": "CI"}, 
  {"state": "Croatia", "regionCode": "HR"}, 
  {"state": "Cuba", "regionCode": "CU"}, 
  {"state": "Cyprus", "regionCode": "CY"}, 
  {"state": "Czech Republic", "regionCode": "CZ"}, 
  {"state": "Denmark", "regionCode": "DK"}, 
  {"state": "Djibouti", "regionCode": "DJ"}, 
  {"state": "Dominica", "regionCode": "DM"}, 
  {"state": "Dominican Republic", "regionCode": "DO"}, 
  {"state": "Ecuador", "regionCode": "EC"}, 
  {"state": "Egypt", "regionCode": "EG"}, 
  {"state": "El Salvador", "regionCode": "SV"}, 
  {"state": "Equatorial Guinea", "regionCode": "GQ"}, 
  {"state": "Eritrea", "regionCode": "ER"}, 
  {"state": "Estonia", "regionCode": "EE"}, 
  {"state": "Ethiopia", "regionCode": "ET"}, 
  {"state": "Falkland Islands (Malvinas)", "regionCode": "FK"}, 
  {"state": "Faroe Islands", "regionCode": "FO"}, 
  {"state": "Fiji", "regionCode": "FJ"}, 
  {"state": "Finland", "regionCode": "FI"}, 
  {"state": "France", "regionCode": "FR"}, 
  {"state": "French Guiana", "regionCode": "GF"}, 
  {"state": "French Polynesia", "regionCode": "PF"}, 
  {"state": "French Southern Territories", "regionCode": "TF"}, 
  {"state": "Gabon", "regionCode": "GA"}, 
  {"state": "Gambia", "regionCode": "GM"}, 
  {"state": "Georgia", "regionCode": "GE"}, 
  {"state": "Germany", "regionCode": "DE"}, 
  {"state": "Ghana", "regionCode": "GH"}, 
  {"state": "Gibraltar", "regionCode": "GI"}, 
  {"state": "Greece", "regionCode": "GR"}, 
  {"state": "Greenland", "regionCode": "GL"}, 
  {"state": "Grenada", "regionCode": "GD"}, 
  {"state": "Guadeloupe", "regionCode": "GP"}, 
  {"state": "Guam", "regionCode": "GU"}, 
  {"state": "Guatemala", "regionCode": "GT"}, 
  {"state": "Guernsey", "regionCode": "GG"}, 
  {"state": "Guinea", "regionCode": "GN"}, 
  {"state": "Guinea-Bissau", "regionCode": "GW"}, 
  {"state": "Guyana", "regionCode": "GY"}, 
  {"state": "Haiti", "regionCode": "HT"}, 
  {"state": "Heard Island and Mcdonald Islands", "regionCode": "HM"}, 
  {"state": "Holy See (Vatican City State)", "regionCode": "VA"}, 
  {"state": "Honduras", "regionCode": "HN"}, 
  {"state": "Hong Kong", "regionCode": "HK"}, 
  {"state": "Hungary", "regionCode": "HU"}, 
  {"state": "Iceland", "regionCode": "IS"}, 
  {"state": "India", "regionCode": "IN"}, 
  {"state": "Indonesia", "regionCode": "ID"}, 
  {"state": "Iran, Islamic Republic Of", "regionCode": "IR"}, 
  {"state": "Iraq", "regionCode": "IQ"}, 
  {"state": "Ireland", "regionCode": "IE"}, 
  {"state": "Isle of Man", "regionCode": "IM"}, 
  {"state": "Israel", "regionCode": "IL"}, 
  {"state": "Italy", "regionCode": "IT"}, 
  {"state": "Jamaica", "regionCode": "JM"}, 
  {"state": "Japan", "regionCode": "JP"}, 
  {"state": "Jersey", "regionCode": "JE"}, 
  {"state": "Jordan", "regionCode": "JO"}, 
  {"state": "Kazakhstan", "regionCode": "KZ"}, 
  {"state": "Kenya", "regionCode": "KE"}, 
  {"state": "Kiribati", "regionCode": "KI"}, 
  {"state": "Korea, Democratic People\"S Republic of", "regionCode": "KP"}, 
  {"state": "Korea, Republic of", "regionCode": "KR"}, 
  {"state": "Kuwait", "regionCode": "KW"}, 
  {"state": "Kyrgyzstan", "regionCode": "KG"}, 
  {"state": "Lao People\"S Democratic Republic", "regionCode": "LA"}, 
  {"state": "Latvia", "regionCode": "LV"}, 
  {"state": "Lebanon", "regionCode": "LB"}, 
  {"state": "Lesotho", "regionCode": "LS"}, 
  {"state": "Liberia", "regionCode": "LR"}, 
  {"state": "Libyan Arab Jamahiriya", "regionCode": "LY"}, 
  {"state": "Liechtenstein", "regionCode": "LI"}, 
  {"state": "Lithuania", "regionCode": "LT"}, 
  {"state": "Luxembourg", "regionCode": "LU"}, 
  {"state": "Macao", "regionCode": "MO"}, 
  {"state": "Macedonia, The Former Yugoslav Republic of", "regionCode": "MK"}, 
  {"state": "Madagascar", "regionCode": "MG"}, 
  {"state": "Malawi", "regionCode": "MW"}, 
  {"state": "Malaysia", "regionCode": "MY"}, 
  {"state": "Maldives", "regionCode": "MV"}, 
  {"state": "Mali", "regionCode": "ML"}, 
  {"state": "Malta", "regionCode": "MT"}, 
  {"state": "Marshall Islands", "regionCode": "MH"}, 
  {"state": "Martinique", "regionCode": "MQ"}, 
  {"state": "Mauritania", "regionCode": "MR"}, 
  {"state": "Mauritius", "regionCode": "MU"}, 
  {"state": "Mayotte", "regionCode": "YT"}, 
  {"state": "Mexico", "regionCode": "MX"}, 
  {"state": "Micronesia, Federated States of", "regionCode": "FM"}, 
  {"state": "Moldova, Republic of", "regionCode": "MD"}, 
  {"state": "Monaco", "regionCode": "MC"}, 
  {"state": "Mongolia", "regionCode": "MN"}, 
  {"state": "Montserrat", "regionCode": "MS"}, 
  {"state": "Morocco", "regionCode": "MA"}, 
  {"state": "Mozambique", "regionCode": "MZ"}, 
  {"state": "Myanmar", "regionCode": "MM"}, 
  {"state": "Namibia", "regionCode": "NA"}, 
  {"state": "Nauru", "regionCode": "NR"}, 
  {"state": "Nepal", "regionCode": "NP"}, 
  {"state": "Netherlands", "regionCode": "NL"}, 
  {"state": "Netherlands Antilles", "regionCode": "AN"}, 
  {"state": "New Caledonia", "regionCode": "NC"}, 
  {"state": "New Zealand", "regionCode": "NZ"}, 
  {"state": "Nicaragua", "regionCode": "NI"}, 
  {"state": "Niger", "regionCode": "NE"}, 
  {"state": "Nigeria", "regionCode": "NG"}, 
  {"state": "Niue", "regionCode": "NU"}, 
  {"state": "Norfolk Island", "regionCode": "NF"}, 
  {"state": "Northern Mariana Islands", "regionCode": "MP"}, 
  {"state": "Norway", "regionCode": "NO"}, 
  {"state": "Oman", "regionCode": "OM"}, 
  {"state": "Pakistan", "regionCode": "PK"}, 
  {"state": "Palau", "regionCode": "PW"}, 
  {"state": "Palestinian Territory, Occupied", "regionCode": "PS"}, 
  {"state": "Panama", "regionCode": "PA"}, 
  {"state": "Papua New Guinea", "regionCode": "PG"}, 
  {"state": "Paraguay", "regionCode": "PY"}, 
  {"state": "Peru", "regionCode": "PE"}, 
  {"state": "Philippines", "regionCode": "PH"}, 
  {"state": "Pitcairn", "regionCode": "PN"}, 
  {"state": "Poland", "regionCode": "PL"}, 
  {"state": "Portugal", "regionCode": "PT"}, 
  {"state": "Puerto Rico", "regionCode": "PR"}, 
  {"state": "Qatar", "regionCode": "QA"}, 
  {"state": "Reunion", "regionCode": "RE"}, 
  {"state": "Romania", "regionCode": "RO"}, 
  {"state": "Russian Federation", "regionCode": "RU"}, 
  {"state": "RWANDA", "regionCode": "RW"}, 
  {"state": "Saint Helena", "regionCode": "SH"}, 
  {"state": "Saint Kitts and Nevis", "regionCode": "KN"}, 
  {"state": "Saint Lucia", "regionCode": "LC"}, 
  {"state": "Saint Pierre and Miquelon", "regionCode": "PM"}, 
  {"state": "Saint Vincent and the Grenadines", "regionCode": "VC"}, 
  {"state": "Samoa", "regionCode": "WS"}, 
  {"state": "San Marino", "regionCode": "SM"}, 
  {"state": "Sao Tome and Principe", "regionCode": "ST"}, 
  {"state": "Saudi Arabia", "regionCode": "SA"}, 
  {"state": "Senegal", "regionCode": "SN"}, 
  {"state": "Serbia and Montenegro", "regionCode": "CS"}, 
  {"state": "Seychelles", "regionCode": "SC"}, 
  {"state": "Sierra Leone", "regionCode": "SL"}, 
  {"state": "Singapore", "regionCode": "SG"}, 
  {"state": "Slovakia", "regionCode": "SK"}, 
  {"state": "Slovenia", "regionCode": "SI"}, 
  {"state": "Solomon Islands", "regionCode": "SB"}, 
  {"state": "Somalia", "regionCode": "SO"}, 
  {"state": "South Africa", "regionCode": "ZA"}, 
  {"state": "South Georgia and the South Sandwich Islands", "regionCode": "GS"}, 
  {"state": "Spain", "regionCode": "ES"}, 
  {"state": "Sri Lanka", "regionCode": "LK"}, 
  {"state": "Sudan", "regionCode": "SD"}, 
  {"state": "Suristate", "regionCode": "SR"}, 
  {"state": "Svalbard and Jan Mayen", "regionCode": "SJ"}, 
  {"state": "Swaziland", "regionCode": "SZ"}, 
  {"state": "Sweden", "regionCode": "SE"}, 
  {"state": "Switzerland", "regionCode": "CH"}, 
  {"state": "Syrian Arab Republic", "regionCode": "SY"}, 
  {"state": "Taiwan, Province of China", "regionCode": "TW"}, 
  {"state": "Tajikistan", "regionCode": "TJ"}, 
  {"state": "Tanzania, United Republic of", "regionCode": "TZ"}, 
  {"state": "Thailand", "regionCode": "TH"}, 
  {"state": "Timor-Leste", "regionCode": "TL"}, 
  {"state": "Togo", "regionCode": "TG"}, 
  {"state": "Tokelau", "regionCode": "TK"}, 
  {"state": "Tonga", "regionCode": "TO"}, 
  {"state": "Trinidad and Tobago", "regionCode": "TT"}, 
  {"state": "Tunisia", "regionCode": "TN"}, 
  {"state": "Turkey", "regionCode": "TR"}, 
  {"state": "Turkmenistan", "regionCode": "TM"}, 
  {"state": "Turks and Caicos Islands", "regionCode": "TC"}, 
  {"state": "Tuvalu", "regionCode": "TV"}, 
  {"state": "Uganda", "regionCode": "UG"}, 
  {"state": "Ukraine", "regionCode": "UA"}, 
  {"state": "United Arab Emirates", "regionCode": "AE"}, 
  {"state": "United Kingdom", "regionCode": "GB"}, 
  {"state": "United States", "regionCode": "US"}, 
  {"state": "United States Minor Outlying Islands", "regionCode": "UM"}, 
  {"state": "Uruguay", "regionCode": "UY"}, 
  {"state": "Uzbekistan", "regionCode": "UZ"}, 
  {"state": "Vanuatu", "regionCode": "VU"}, 
  {"state": "Venezuela", "regionCode": "VE"}, 
  {"state": "Viet Nam", "regionCode": "VN"}, 
  {"state": "Virgin Islands, British", "regionCode": "VG"}, 
  {"state": "Virgin Islands, U.S.", "regionCode": "VI"}, 
  {"state": "Wallis and Futuna", "regionCode": "WF"}, 
  {"state": "Western Sahara", "regionCode": "EH"}, 
  {"state": "Yemen", "regionCode": "YE"}, 
  {"state": "Zambia", "regionCode": "ZM"}, 
  {"state": "Zimbabwe", "regionCode": "ZW"} 
]