<?xml version="1.0" encoding="utf-8"?>
<!-- Generator: Adobe Illustrator 18.0.0, SVG Export Plug-In . SVG Version: 6.00 Build 0)  -->
<!DOCTYPE svg PUBLIC "-//W3C//DTD SVG 1.1//EN" "http://www.w3.org/Graphics/SVG/1.1/DTD/svg11.dtd">
<svg version="1.1" id="Layer_1" xmlns="http://www.w3.org/2000/svg" xmlns:xlink="http://www.w3.org/1999/xlink" x="0px" y="0px"
	 width="52px" height="52px" viewBox="0 0 52 52" enable-background="new 0 0 52 52" xml:space="preserve">
<g id="_x32_1._Search-filled">
	<path d="M46.08887,42.55371L34.57581,31.04065c4.69623-6.40204,4.16919-15.43732-1.61859-21.2251
		C29.76203,6.6203,25.57416,5.0227,21.38636,5.0227S13.01074,6.6203,9.81549,9.81555c-6.39038,6.39038-6.39038,16.75122,0,23.1416
		C13.01074,36.1524,17.19855,37.75,21.38635,37.75c3.39801,0,6.78656-1.0705,9.6543-3.17419l11.51306,11.51306
		c0.48828,0.48828,1.12793,0.73242,1.76758,0.73242s1.2793-0.24414,1.76758-0.73242
		C47.06543,45.1123,47.06543,43.53027,46.08887,42.55371z M21.38635,32.75c-3.03534,0-5.88898-1.18207-8.03528-3.32837
		c-4.43066-4.43066-4.43066-11.63989,0-16.07056c2.1463-2.1463,4.99994-3.32837,8.03528-3.32837s5.88898,1.18207,8.03534,3.32837
		c4.43066,4.43066,4.43066,11.63989,0,16.07056C27.27533,31.56793,24.42169,32.75,21.38635,32.75z"/>
</g>
</svg>
