<?xml version="1.0" encoding="utf-8"?>
<!-- Generator: Adobe Illustrator 18.0.0, SVG Export Plug-In . SVG Version: 6.00 Build 0)  -->
<!DOCTYPE svg PUBLIC "-//W3C//DTD SVG 1.1//EN" "http://www.w3.org/Graphics/SVG/1.1/DTD/svg11.dtd">
<svg version="1.1" id="Layer_1" xmlns="http://www.w3.org/2000/svg" xmlns:xlink="http://www.w3.org/1999/xlink" x="0px" y="0px"
	 width="52px" height="52px" viewBox="0 0 52 52" enable-background="new 0 0 52 52" xml:space="preserve">
<g id="_x31_._Activity_copy">
	<g>
		<path d="M15,13c0-2.76141-2.23859-5-5-5s-5,2.23859-5,5c0,2.23517,1.47656,4.10541,3.5,4.74561v3.50879
			C6.47656,21.89459,5,23.76483,5,26s1.47656,4.10541,3.5,4.74561v3.50879C6.47656,34.89459,5,36.76483,5,39
			c0,2.76141,2.23859,5,5,5s5-2.23859,5-5c0-2.23517-1.47656-4.10541-3.5-4.74561V30.7456C13.52344,30.10541,15,28.23517,15,26
			s-1.47656-4.10541-3.5-4.74561V17.7456C13.52344,17.10541,15,15.23517,15,13z"/>
		<path d="M20.5,14.5h16c0.82812,0,1.5-0.67139,1.5-1.5s-0.67188-1.5-1.5-1.5h-16c-0.82812,0-1.5,0.67139-1.5,1.5
			S19.67188,14.5,20.5,14.5z"/>
		<path d="M33.5,37.5h-13c-0.82812,0-1.5,0.67188-1.5,1.5s0.67188,1.5,1.5,1.5h13c0.82812,0,1.5-0.67188,1.5-1.5
			S34.32812,37.5,33.5,37.5z"/>
		<path d="M45.5,24.5h-25c-0.82812,0-1.5,0.67139-1.5,1.5s0.67188,1.5,1.5,1.5h25c0.82812,0,1.5-0.67139,1.5-1.5
			S46.32812,24.5,45.5,24.5z"/>
	</g>
</g>
</svg>
