<?xml version="1.0" encoding="utf-8"?>
<!-- Generator: Adobe Illustrator 18.0.0, SVG Export Plug-In . SVG Version: 6.00 Build 0)  -->
<!DOCTYPE svg PUBLIC "-//W3C//DTD SVG 1.1//EN" "http://www.w3.org/Graphics/SVG/1.1/DTD/svg11.dtd">
<svg version="1.1" id="Layer_1" xmlns="http://www.w3.org/2000/svg" xmlns:xlink="http://www.w3.org/1999/xlink" x="0px" y="0px"
	 width="52px" height="52px" viewBox="0 0 52 52" enable-background="new 0 0 52 52" xml:space="preserve">
<g id="_x33_9._Down">
	<path d="M46.56055,15.18945c-0.58594-0.58594-1.53516-0.58594-2.12109,0L26,33.62891L7.56055,15.18945
		c-0.58594-0.58594-1.53516-0.58594-2.12109,0c-0.58594,0.58545-0.58594,1.53564,0,2.12109l19.5,19.5
		C25.23242,37.10352,25.61621,37.25,26,37.25s0.76758-0.14648,1.06055-0.43945l19.5-19.5
		C47.14648,16.7251,47.14648,15.7749,46.56055,15.18945z"/>
</g>
</svg>
