<?xml version="1.0" encoding="utf-8"?>
<!-- Generator: Adobe Illustrator 18.0.0, SVG Export Plug-In . SVG Version: 6.00 Build 0)  -->
<!DOCTYPE svg PUBLIC "-//W3C//DTD SVG 1.1//EN" "http://www.w3.org/Graphics/SVG/1.1/DTD/svg11.dtd">
<svg version="1.1" id="Layer_1" xmlns="http://www.w3.org/2000/svg" xmlns:xlink="http://www.w3.org/1999/xlink" x="0px" y="0px"
	 width="52px" height="52px" viewBox="0 0 52 52" enable-background="new 0 0 52 52" xml:space="preserve">
<g id="_x36_4._Alert">
	<path d="M44,38.36426c0-0.58301-0.19238-1.21973-0.48926-1.66504c-2.48535-3.97656-3.60352-10.09863-3.60352-13.17627v-2.17676
		c0-6.55951-4.35828-12.12933-10.22498-13.78528C29.88647,7.08099,30,6.55359,30,6c0-2.20557-1.79395-4-4-4s-4,1.79443-4,4
		c0,0.54962,0.11182,1.07343,0.31323,1.5506c-2.25476,0.62744-4.35077,1.81909-6.01831,3.487
		c-2.70996,2.61328-4.20264,6.15039-4.20264,9.96045v2.5249c0,2.93701-0.9751,9.10596-3.57812,13.13721
		C8.19238,37.14258,8,37.7793,8,38.36426c0,3.57281,6.09369,4.9129,12,5.37347v0.71246C20,47.51074,22.69141,50,26,50
		s6-2.48926,6-5.5498v-0.74548c4.15973-0.34497,9.1579-1.15869,11.04102-3.08264C43.85645,39.78809,44.0127,38.91699,44,38.36426z
		 M26,5c0.55176,0,1,0.44873,1,1s-0.44824,1-1,1s-1-0.44873-1-1S25.44824,5,26,5z M29,44.4502C29,45.85645,27.6543,47,26,47
		s-3-1.14355-3-2.5498V44h6V44.4502z M26.04297,40.95703c-8.01758,0-14.67041-1.39746-15.02148-2.64941
		c2.98682-4.625,4.07129-11.37549,4.07129-14.78467v-2.5249c0-2.98779,1.16602-5.7583,3.30371-7.82031
		c1.99316-1.99219,4.73047-3.13477,7.51074-3.13477l0.29102,0.00391c5.90527,0.07666,10.70898,5.146,10.70898,11.29932v2.17676
		c0,3.19824,1.10156,10.03467,4.05859,14.76611l0.03613,0.0957C40.60156,39.57422,33.98047,40.95703,26.04297,40.95703z"/>
</g>
</svg>
