<?xml version="1.0" encoding="utf-8"?>
<!-- Generator: Adobe Illustrator 18.0.0, SVG Export Plug-In . SVG Version: 6.00 Build 0)  -->
<!DOCTYPE svg PUBLIC "-//W3C//DTD SVG 1.1//EN" "http://www.w3.org/Graphics/SVG/1.1/DTD/svg11.dtd">
<svg version="1.1" id="Layer_1" xmlns="http://www.w3.org/2000/svg" xmlns:xlink="http://www.w3.org/1999/xlink" x="0px" y="0px"
	 width="52px" height="52px" viewBox="0 0 52 52" enable-background="new 0 0 52 52" xml:space="preserve">
<g id="_x31_9._Download-filled">
	<g>
		<path d="M24.23242,37.27051C24.7207,37.75879,25.36035,38.00293,26,38.00293s1.2793-0.24414,1.76758-0.73242l11-11
			c0.97656-0.97607,0.97656-2.55908,0-3.53516c-0.97656-0.97656-2.55859-0.97656-3.53516,0L28.5,29.46777V11.5
			c0-1.38086-1.11914-2.5-2.5-2.5s-2.5,1.11914-2.5,2.5v17.96777l-6.73242-6.73242c-0.97656-0.97656-2.55859-0.97656-3.53516,0
			c-0.97656,0.97607-0.97656,2.55908,0,3.53516L24.23242,37.27051z"/>
		<path d="M44.5,33c-1.37891,0-2.5,1.12109-2.5,2.49414L41.99609,42H10v-6.5c0-1.37891-1.12109-2.5-2.5-2.5S5,34.12109,5,35.5V43
			c0,2.20605,1.79395,4,4,4h34c2.20605,0,4-1.79395,4-4v-7.5C47,34.12109,45.87891,33,44.5,33z"/>
	</g>
</g>
</svg>
