<?xml version="1.0" encoding="utf-8"?>
<!-- Generator: Adobe Illustrator 18.0.0, SVG Export Plug-In . SVG Version: 6.00 Build 0)  -->
<!DOCTYPE svg PUBLIC "-//W3C//DTD SVG 1.1//EN" "http://www.w3.org/Graphics/SVG/1.1/DTD/svg11.dtd">
<svg version="1.1" id="Layer_1" xmlns="http://www.w3.org/2000/svg" xmlns:xlink="http://www.w3.org/1999/xlink" x="0px" y="0px"
	 width="52px" height="52px" viewBox="0 0 52 52" enable-background="new 0 0 52 52" xml:space="preserve">
<g id="_x36_9._Business_Services-filled">
	<g>
		<path d="M20.383484,11h11.233032l1.835632-7.125977c0.116211-0.44873,0.017578-0.92627-0.266602-1.292969S32.463867,2,32,2H20
			c-0.463867,0-0.901367,0.214355-1.185547,0.581055s-0.382812,0.844238-0.266602,1.292969L20.383484,11z"/>
		<path d="M34.986328,40.8125L31.29248,14h-10.41626l-3.860596,26.803711c-0.067383,0.46875,0.089844,0.941406,0.424805,1.275391
			l7.5,7.482422C25.233398,49.853516,25.616211,50,26,50s0.766602-0.146484,1.05957-0.438477l7.5-7.482422
			C34.892578,41.74707,35.049805,41.27832,34.986328,40.8125z"/>
	</g>
</g>
</svg>
