<?xml version="1.0" encoding="utf-8"?>
<!-- Generator: Adobe Illustrator 18.0.0, SVG Export Plug-In . SVG Version: 6.00 Build 0)  -->
<!DOCTYPE svg PUBLIC "-//W3C//DTD SVG 1.1//EN" "http://www.w3.org/Graphics/SVG/1.1/DTD/svg11.dtd">
<svg version="1.1" id="Layer_1" xmlns="http://www.w3.org/2000/svg" xmlns:xlink="http://www.w3.org/1999/xlink" x="0px" y="0px"
	 width="52px" height="52px" viewBox="0 0 52 52" enable-background="new 0 0 52 52" xml:space="preserve">
<g id="_x37_._Rewards-filled">
	<path d="M45.31934,12.49121L28.0625,2.55127c-1.25195-0.72168-2.87305-0.72168-4.125,0L6.68066,12.49121
		c-1.27344,0.73389-2.06445,2.10156-2.06445,3.56885v19.88037c0,1.46777,0.79102,2.83496,2.06445,3.56836l17.25781,9.94043
		C24.56445,49.80957,25.27734,50,26,50s1.43555-0.19043,2.0625-0.55078l17.25586-9.94043
		c1.27441-0.7334,2.06543-2.10059,2.06543-3.56836V16.06006C47.38379,14.59277,46.59277,13.2251,45.31934,12.49121z
		 M35.67816,23.23358l-3.77661,4.05237l0.98596,5.75079c0.07733,0.45081-0.10785,0.90546-0.47736,1.17419
		c-0.20935,0.15161-0.45703,0.22894-0.70544,0.22894c-0.19141,0-0.38281-0.04535-0.55859-0.13751l-5.13208-2.69843l-5.13202,2.69843
		c-0.40393,0.21252-0.89374,0.17657-1.2641-0.09143c-0.36951-0.26874-0.55469-0.72339-0.47729-1.17419l0.9859-5.74768
		l-3.80157-4.05237c-0.30469-0.32458-0.40466-0.79102-0.25934-1.2121c0.14453-0.42072,0.51093-0.72656,0.95074-0.79492
		l5.41333-0.83826l2.55621-4.24963c0.21643-0.36096,0.60706-0.58167,1.02814-0.58167s0.81171,0.2207,1.02814,0.58167l2.55627,4.25
		l5.38593,0.83826c0.43909,0.06799,0.80469,0.37347,0.95001,0.79303C36.07892,22.44299,35.98047,22.90857,35.67816,23.23358z"/>
</g>
</svg>
