<?xml version="1.0" encoding="utf-8"?>
<!-- Generator: Adobe Illustrator 18.0.0, SVG Export Plug-In . SVG Version: 6.00 Build 0)  -->
<!DOCTYPE svg PUBLIC "-//W3C//DTD SVG 1.1//EN" "http://www.w3.org/Graphics/SVG/1.1/DTD/svg11.dtd">
<svg version="1.1" id="Layer_1" xmlns="http://www.w3.org/2000/svg" xmlns:xlink="http://www.w3.org/1999/xlink" x="0px" y="0px"
	 width="52px" height="52px" viewBox="0 0 52 52" enable-background="new 0 0 52 52" xml:space="preserve">
<g id="_x36_7._Pet_-filled">
	<g>
		<path d="M43.96387,36.67969c-0.01562-0.17578-0.03613-0.35254-0.06445-0.5459c-0.03027-0.20312-0.06836-0.4043-0.12598-0.67578
			c-0.04102-0.17773-0.08691-0.35352-0.13477-0.52051l-0.05176-0.17969c-0.04297-0.13574-0.08789-0.26953-0.13086-0.38672
			c-0.05078-0.14355-0.10645-0.2832-0.16406-0.42383l-0.04883-0.11523c-0.84473-1.97559-2.36816-3.63184-4.28027-4.6582
			c-0.11426-0.0625-0.22949-0.12402-0.34082-0.17969c-0.74805-0.37793-1.83887-1.41895-2.49121-2.04053l-0.06641-0.06299
			c-0.29395-0.29053-0.57129-0.94434-0.81641-1.521c-0.17383-0.40967-0.34668-0.81006-0.50684-1.10596
			C33.19531,21.06592,29.79785,19,26.08594,19h-0.17188c-3.71191,0-7.10938,2.06592-8.62598,5.20605
			c-0.21484,0.39941-0.38379,0.81592-0.54688,1.21875c-0.23047,0.56689-0.46777,1.15283-0.73145,1.41309
			c-0.64648,0.61523-1.85059,1.76172-2.62598,2.15332c-0.11719,0.05859-0.23242,0.12109-0.33789,0.17871
			c-1.9209,1.03027-3.44434,2.68652-4.27539,4.63086l-0.0625,0.14648c-0.05762,0.14062-0.11328,0.28027-0.1582,0.4082
			c-0.0498,0.1377-0.09766,0.27637-0.13867,0.41016l-0.04882,0.167c-0.0498,0.17383-0.0957,0.34863-0.15039,0.59766
			c-0.04297,0.19922-0.08105,0.40039-0.11523,0.63086c-0.02539,0.1748-0.0459,0.35059-0.06152,0.52734l-0.01465,0.19434
			C8.00684,37.08594,8,37.29199,8,37.5c0,0.80762,0.10449,1.60938,0.31055,2.3877c0.08203,0.30273,0.17676,0.60156,0.28711,0.8916
			c0.32715,0.86719,0.78223,1.68262,1.35449,2.42285c0.375,0.4873,0.7998,0.93945,1.25977,1.34473
			c0.11328,0.09961,0.23047,0.19727,0.35352,0.29688c0.4834,0.38672,1.00586,0.72949,1.55371,1.01758
			c0.27441,0.14453,0.55859,0.27637,0.85254,0.39844c0.44141,0.18066,0.89746,0.33008,1.35449,0.44434
			c0.9873,0.24512,2.0459,0.34277,3.02637,0.27734c0.39746-0.02441,0.79297-0.07129,1.1748-0.1416
			c0.94824-0.1748,1.85645-0.4873,2.6582-0.90723c1.71387-0.83105,3.84082-1.06445,5.78809-0.63574
			c0.64844,0.14453,1.26758,0.3584,1.79883,0.61426c0.33008,0.17383,0.67871,0.33008,1.03418,0.46387
			c0.35742,0.13574,0.72754,0.25098,1.09668,0.3418c0.37598,0.09277,0.76367,0.16406,1.14941,0.20996
			C33.44336,46.97559,33.84668,47,34.25,47c0.81836,0,1.63379-0.09961,2.4248-0.29688
			c0.45605-0.11328,0.91211-0.2627,1.3584-0.44531c0.28906-0.12012,0.57324-0.25195,0.84668-0.39648
			c0.54883-0.28809,1.07129-0.63086,1.55957-1.02148c0.11816-0.0957,0.23535-0.19336,0.34863-0.29297
			c0.45996-0.40527,0.88477-0.85742,1.25977-1.34473c0.57227-0.74023,1.02734-1.55566,1.35449-2.4209
			c0.11035-0.29199,0.20508-0.59082,0.28711-0.89746C43.89551,39.10938,44,38.30762,44,37.5
			c0-0.20898-0.00684-0.41699-0.02051-0.62109L43.96387,36.67969z"/>
		<path d="M14,21c0-3.36426-1.97656-6-4.5-6S5,17.63574,5,21s1.97656,6,4.5,6S14,24.36426,14,21z"/>
		<path d="M42.5,15c-2.52344,0-4.5,2.63574-4.5,6s1.97656,6,4.5,6s4.5-2.63574,4.5-6S45.02344,15,42.5,15z"/>
		<path d="M19.5,17c2.52344,0,4.5-2.63574,4.5-6s-1.97656-6-4.5-6S15,7.63574,15,11S16.97656,17,19.5,17z"/>
		<path d="M32.5,17c2.52344,0,4.5-2.63574,4.5-6s-1.97656-6-4.5-6S28,7.63574,28,11S29.97656,17,32.5,17z"/>
	</g>
</g>
</svg>
