<?xml version="1.0" encoding="utf-8"?>
<!-- Generator: Adobe Illustrator 18.0.0, SVG Export Plug-In . SVG Version: 6.00 Build 0)  -->
<!DOCTYPE svg PUBLIC "-//W3C//DTD SVG 1.1//EN" "http://www.w3.org/Graphics/SVG/1.1/DTD/svg11.dtd">
<svg version="1.1" id="Layer_1" xmlns="http://www.w3.org/2000/svg" xmlns:xlink="http://www.w3.org/1999/xlink" x="0px" y="0px"
	 width="52px" height="52px" viewBox="0 0 52 52" enable-background="new 0 0 52 52" xml:space="preserve">
<g id="Offers_Desktop-filled">
	<g>
		<path d="M47,9.5H11c-1.650024,0-3,1.349976-3,3v3H5c-1.650024,0-3,1.349976-3,3v21c0,1.649963,1.349976,3,3,3h36
			c1.650024,0,3-1.350037,3-3v-3h3c1.650024,0,3-1.350037,3-3v-21C50,10.849976,48.650024,9.5,47,9.5z M36.5,27.5H35V29
			c0,0.828125-0.671875,1.5-1.5,1.5S32,29.828125,32,29v-1.5h-1.5c-0.828125,0-1.5-0.671387-1.5-1.5s0.671875-1.5,1.5-1.5H32V23
			c0-0.828613,0.671875-1.5,1.5-1.5S35,22.171387,35,23v1.5h1.5c0.828125,0,1.5,0.671387,1.5,1.5S37.328125,27.5,36.5,27.5z
			 M47,33.5h-3v-15c0-1.650024-1.349976-3-3-3H11v-3h36V33.5z"/>
	</g>
</g>
</svg>
