<?xml version="1.0" encoding="utf-8"?>
<!-- Generator: Adobe Illustrator 18.0.0, SVG Export Plug-In . SVG Version: 6.00 Build 0)  -->
<!DOCTYPE svg PUBLIC "-//W3C//DTD SVG 1.1//EN" "http://www.w3.org/Graphics/SVG/1.1/DTD/svg11.dtd">
<svg version="1.1" id="Layer_1" xmlns="http://www.w3.org/2000/svg" xmlns:xlink="http://www.w3.org/1999/xlink" x="0px" y="0px"
	 width="100px" height="69px" viewBox="0 0 100 69" enable-background="new 0 0 100 69" xml:space="preserve">
<rect fill="#FFFFFF" width="100" height="69"/>
<rect fill="#ED2939" width="100" height="33.33333"/>
<path fill="#FFFFFF" d="M34.2981,16.66667c0,6.92274-5.61199,12.53472-12.53472,12.53472S9.22866,23.5894,9.22866,16.66667
	S14.84064,4.13194,21.76338,4.13194S34.2981,9.74393,34.2981,16.66667z"/>
<path fill="#ED2939" d="M38.23692,16.66667c0,6.54221-5.30351,11.84572-11.84572,11.84572s-11.84572-5.30351-11.84572-11.84572
	S19.849,4.82095,26.3912,4.82095S38.23692,10.12446,38.23692,16.66667z"/>
<path id="star" fill="#FFFFFF" d="M23.3147,16.96908l-1.70279-1.30625l-1.70236,1.30687l0.6554-2.10635l-1.7082-1.29842
	l2.10785,0.00446l0.64663-2.10934l0.64732,2.1091l2.10784-0.00522l-1.70778,1.29904L23.3147,16.96908z"/>
<g transform="translate(577.18853,0)">
	<path id="star_1_" fill="#FFFFFF" d="M36.67555,16.96908l-1.70279-1.30625L33.2704,16.9697l0.6554-2.10635l-1.7082-1.29842
		l2.10785,0.00446l0.64663-2.10934l0.64732,2.1091l2.10784-0.00522l-1.70778,1.29904L36.67555,16.96908z"/>
</g>
<g transform="translate(288.88853,-214.21117)">
	<path id="star_2_" fill="#FFFFFF" d="M30.00194,12.01049l-1.70279-1.30625l-1.70236,1.30687l0.6554-2.10635l-1.7082-1.29842
		l2.10785,0.00446l0.64663-2.10934l0.64732,2.1091l2.10784-0.00522l-1.70778,1.29904L30.00194,12.01049z"/>
</g>
<g transform="translate(107.99953,342.74883)">
	<path id="star_3_" fill="#FFFFFF" d="M25.81469,24.90308l-1.70279-1.30625l-1.70236,1.30687l0.6554-2.10635l-1.7082-1.29841
		l2.10785,0.00446l0.64663-2.10934l0.64733,2.10911l2.10784-0.00522l-1.70778,1.29903L25.81469,24.90308z"/>
</g>
<g transform="translate(469.18853,342.74883)">
	<path id="star_4_" fill="#FFFFFF" d="M34.17555,24.90308l-1.70279-1.30625L30.7704,24.9037l0.6554-2.10635l-1.7082-1.29841
		l2.10785,0.00446l0.64663-2.10934l0.64732,2.10911l2.10784-0.00522l-1.70778,1.29903L34.17555,24.90308z"/>
</g>
</svg>
