[{
    "orgName": "org1",
    "phoneNumber": "1234567890",
    "addressLine1": "jdbjdsbhbs",
    "addressLine2": "ndjsnfns",
    "city": "phoenix",
    "zip": "90211",
    "country": "US",
    "state": "002",
    "organizationId": "1043",
    "publicGUID": null,
    "appdatalist": null,
    "dateCreated": "2016-12-22 16:49:17",
    "orgId": 0
}, {
    "orgName": "org2",
    "phoneNumber": "1234567890",
    "addressLine1": "jdbjdsbhbs",
    "addressLine2": "ndjsnfns",
    "city": "phoenix",
    "zip": "90211",
    "country": "AF",
    "state": "003",
    "organizationId": "1044",
    "publicGUID": null,
    "appdatalist": null,
    "dateCreated": "2016-12-22 16:49:17",
    "orgId": 1
}, {
    "orgName": "org3",
    "phoneNumber": "1234567890",
    "addressLine1": "jdbjdsbhbs",
    "addressLine2": "ndjsnfns",
    "city": "phoenix",
    "zip": "90211",
    "country": "IN",
    "state": "004",
    "organizationId": "1045",
    "publicGUID": null,
    "appdatalist": null,
    "dateCreated": "2016-12-22 16:49:17",
    "orgId": 2
}]